Link Name,Center of Mass X,Center of Mass Y,Center of Mass Z,Center of Mass Roll,Center of Mass Pitch,Center of Mass Yaw,Mass,Moment Ixx,Moment Ixy,Moment Ixz,Moment Iyy,Moment Iyz,Moment Izz,Visual X,Visual Y,Visual Z,Visual Roll,Visual Pitch,Visual Yaw,Mesh Filename,Color Red,Color Green,Color Blue,Color Alpha,Collision X,Collision Y,Collision Z,Collision Roll,Collision Pitch,Collision Yaw,Collision Mesh Filename,Material Name,SW Components,Coordinate System,Axis Name,Joint Name,Joint Type,Joint Origin X,Joint Origin Y,Joint Origin Z,Joint Origin Roll,Joint Origin Pitch,Joint Origin Yaw,Parent,Joint Axis X,Joint Axis Y,Joint Axis Z,Limit Effort,Limit Velocity,Limit Lower,Limit Upper,Calibration rising,Calibration falling,Dynamics Damping,Dynamics Friction,Safety Soft Upper,Safety Soft Lower,Safety K Position,Safety K Velocity
base_link,-0.027968,-0.015898,0.10699,0,0,0,34.905,0.29296,0.016422,-0.016834,0.34832,0.0053033,0.36572,0,0,0,0,0,0,package://robot_arm_urdf/meshes/base_link.STL,0.89804,0.91765,0.92941,1,0,0,0,0,0,0,package://robot_arm_urdf/meshes/base_link.STL,,rv-7f_base_01_Alaqeb3 ss-2,Origin_global,,,,0,0,0,0,0,0,,0,0,0,,,,,,,,,,,,
link_1,0.0025513,-0.00013031,0.11366,0,0,0,15.759,0.2375,0.00017323,0.0030384,0.13615,3.914E-05,0.17613,0,0,0,0,0,0,package://robot_arm_urdf/meshes/link_1.STL,0.89804,0.91765,0.92941,1,0,0,0,0,0,0,package://robot_arm_urdf/meshes/link_1.STL,,rv-7f_sholder_02_Alaqeb3 ss-1,Origin_joint_1,Axis1,joint_1,revolute,0,0,0.225,0,0,0,base_link,0,0,1,45,5.0266,-4.1888,4.1888,,,,,,,,
link_2,-0.015729,-0.10772,0.00061604,0,0,0,25.004,0.50857,-0.01108,0.00035393,0.13893,0.0022417,0.4652,0,0,0,0,0,0,package://robot_arm_urdf/meshes/link_2.STL,0.89804,0.91765,0.92941,1,0,0,0,0,0,0,package://robot_arm_urdf/meshes/link_2.STL,,rv-7f_no1arm_03_Alaqeb3 ss-1,Origin_joint_2,Axis2,joint_2,revolute,0,0,0.1745,-1.5708,0,0,link_1,0,0,1,35,5.6025,-1.9199,2.2689,,,,,,,,
link_3,0.013495,0.0016978,-0.00010103,0,0,0,10.246,0.039954,-0.0038433,-8.3715E-05,0.037117,-0.00056146,0.0454,0,0,0,0,0,0,package://robot_arm_urdf/meshes/link_3.STL,0.89804,0.91765,0.92941,1,0,0,0,0,0,0,package://robot_arm_urdf/meshes/link_3.STL,,rv-7f_elbow_04_Alaqeb3 ss-1,Origin_joint_3,Axis3,joint_3,revolute,0,-0.34,0,0,0,-1.5708,link_2,0,0,-1,25,6.2832,0,2.8274,,,,,,,,
link_4,0.00099182,-0.0010547,0.12485,0,0,0,7.2966,0.053601,-5.9306E-06,-0.00036928,0.049788,0.00026345,0.014085,0,0,0,0,0,0,package://robot_arm_urdf/meshes/link_4.STL,0.89804,0.91765,0.92941,1,0,0,0,0,0,0,package://robot_arm_urdf/meshes/link_4.STL,,rv-7f_no2arm_05_Alaqeb3 ss-1,Origin_joint_4,Axis4,joint_4,revolute,0.049787,0.094996,0,-1.5708,0,0,link_3,0,0,-1,16.2,5.8818,-3.4907,3.4907,,,,,,,,
link_5,0.0011578,-0.013578,-2.1104E-05,0,0,0,1.5565,0.0020785,4.6882E-05,7.277E-07,0.001345,4.3462E-08,0.0023333,0,0,0,0,0,0,package://robot_arm_urdf/meshes/link_5.STL,0.89804,0.91765,0.92941,1,0,0,0,0,0,0,package://robot_arm_urdf/meshes/link_5.STL,,rv-4f_wrist_06.1_Alaqeb3 ss-1,Origin_joint_5,Axis5,joint_5,revolute,0.0010971,0,0.27426,-1.5708,0,3.1416,link_4,0,0,-1,16.2,7.854,-2.0944,2.0944,,,,,,,,
link_6,-0.00012561,-1.1632E-05,0.0058625,0,0,0,0.046554,5.9031E-06,1.026E-10,-2.487E-09,5.8159E-06,3.3052E-09,1.028E-05,0,0,0,0,0,0,package://robot_arm_urdf/meshes/link_6.STL,0.89804,0.91765,0.92941,1,0,0,0,0,0,0,package://robot_arm_urdf/meshes/link_6.STL,,rv-4f_wrist_06.2_Alaqeb3 ss-1,Origin_joint_6,Axis6,joint_6,revolute,0,-0.075,0,1.5708,0,0,link_5,0,0,-1,6.86,12.566,-6.2832,6.2832,,,,,,,,
